0 info it worked if it ends with ok
1 verbose cli [ 'node', '/usr/local/bin/npm', 'install' ]
2 info using npm@2.7.0
3 info using node@v0.10.21
4 error install Couldn't read dependencies
5 verbose stack Error: ENOENT, open '/usr/local/src/node/var/cluster/package.json'
6 verbose cwd /usr/local/src/node/var/cluster
7 error Linux 3.14.27-25.47.amzn1.x86_64
8 error argv "node" "/usr/local/bin/npm" "install"
9 error node v0.10.21
10 error npm  v2.7.0
11 error path /usr/local/src/node/var/cluster/package.json
12 error code ENOPACKAGEJSON
13 error errno 34
14 error package.json ENOENT, open '/usr/local/src/node/var/cluster/package.json'
14 error package.json This is most likely not a problem with npm itself.
14 error package.json npm can't find a package.json file in your current directory.
15 verbose exit [ 34, true ]
